…
> set.seed(843)
> 
> ## parallel tune grid
> 
> if(PARALLEL){
+   cl <- makePSOCKcluster(5)
+   registerDoParallel(cl)
+ }
> 
> ## Set up preprocessing
> prepped_recipe <- setup_train_recipe(train, encode=T, smote_K = 0.85, pca_threshold = 0)
> 
> ## Bake recipe
> bake(prepped_recipe, new_data=train)
# A tibble: 32,769 × 10
   RESOURCE MGR_ID ROLE_ROLLUP_1 ROLE_ROLLUP_2 ROLE_DEPTNAME ROLE_TITLE
      <dbl>  <dbl>         <dbl>         <dbl>         <dbl>      <dbl>
 1  -0.351  -0.954        -0.141        -0.278      -0.00436     -0.469
 2  -0.0555 -0.588        -0.141        -0.955       1.12        -0.334
 3  -0.290  -0.465         1.02          0.879       0.746        1.24 
 4  -0.223  -0.988        -0.141        -0.955      -1.25         0.773
 5  -0.594  -0.573         0.614         1.67        2.11         1.36 
 6   1.29    2.02          0.419         0.474       1.18         0.675
 7   0.389  -0.709        -0.141        -0.955      -0.923        0.605
 8  -0.891  -0.524        -0.141         0.707      -0.118        0.456
 9  -0.407  -0.797        -0.141        -0.673       0.101        0.881
10  -0.773  -0.418         3.47          2.69        0.503        1.24 
# ℹ 32,759 more rows
# ℹ 4 more variables: ROLE_FAMILY_DESC <dbl>, ROLE_FAMILY <dbl>,
#   ROLE_CODE <dbl>, ACTION <fct>
> bake(prepped_recipe, new_data=test)
# A tibble: 58,921 × 9
   RESOURCE MGR_ID ROLE_ROLLUP_1 ROLE_ROLLUP_2 ROLE_DEPTNAME ROLE_TITLE
      <dbl>  <dbl>         <dbl>         <dbl>         <dbl>      <dbl>
 1   -0.773  1.49          3.47         2.69          0.503       1.24 
 2    1.81  -0.677        -0.141       -0.207         0.358      -1.65 
 3   -0.671 -0.938        -0.141       -0.278        -1.10        0.273
 4   -0.290  1.46         -0.141       -0.324        -0.754       0.850
 5    0.668 -0.698        -0.141       -0.955        -0.684      -2.01 
 6    1.27  -0.944        -0.141       -0.0278       -1.04       -1.81 
 7   -0.801  1.85         -0.141       -0.955         2.17       -0.582
 8   -2.42  -0.765        -0.141       -0.278        -0.0823     -1.76 
 9    2.41  -0.486        -0.897        0.295         1.71        0.858
10    1.41  -0.747        -0.141       -0.862        -1.32        0.773
# ℹ 58,911 more rows
# ℹ 3 more variables: ROLE_FAMILY_DESC <dbl>, ROLE_FAMILY <dbl>,
#   ROLE_CODE <dbl>
…
