…
> 
> ## parallel tune grid
> 
> cl <- makePSOCKcluster(50)
> registerDoParallel(cl)
> 
> ## Set up preprocessing
> prepped_recipe <- setup_train_recipe(train)
boundary (singular) fit: see help('isSingular')
Warning message:
Column(s) have zero variance so scaling cannot be used: `MGR_ID`. Consider using `step_zv()` to remove those columns before normalizing 
> 
> ## Bake recipe
> bake(prepped_recipe, new_data=train)
# A tibble: 32,769 × 10
   RESOURCE   MGR_ID ROLE_ROLLUP_1 ROLE_ROLLUP_2 ROLE_DEPTNAME ROLE_TITLE
      <dbl>    <dbl>         <dbl>         <dbl>         <dbl>      <dbl>
 1    0.252 4.44e-16        -0.473        -0.543         0.169     -1.28 
 2    0.252 4.44e-16        -0.473        -1.41          0.169     -0.145
 3    0.252 4.44e-16         1.39          0.896         0.940      1.86 
 4    0.252 4.44e-16        -0.473        -1.41          0.169      1.00 
 5    0.252 4.44e-16         1.39          0.896         0.169     -0.145
 6    0.252 4.44e-16         1.39          0.896         0.169      0.817
 7   -0.487 4.44e-16        -0.473        -1.41          0.169     -0.145
 8    0.252 4.44e-16        -0.473         0.656         0.169     -0.145
 9    0.252 4.44e-16        -0.473        -1.01          0.169     -0.145
10    0.252 4.44e-16         1.39          0.896         0.345      1.86 
# ℹ 32,759 more rows
# ℹ 4 more variables: ROLE_FAMILY_DESC <dbl>, ROLE_FAMILY <dbl>,
#   ROLE_CODE <dbl>, ACTION <fct>
> bake(prepped_recipe, new_data=test)
# A tibble: 58,921 × 9
   RESOURCE   MGR_ID ROLE_ROLLUP_1 ROLE_ROLLUP_2 ROLE_DEPTNAME ROLE_TITLE
      <dbl>    <dbl>         <dbl>         <dbl>         <dbl>      <dbl>
 1    0.252 4.44e-16         1.39          0.896         0.345      1.86 
 2    0.252 4.44e-16        -0.473        -0.447         0.169     -0.145
 3    0.252 4.44e-16        -0.473        -0.543         0.169     -0.145
 4    0.252 4.44e-16        -0.473        -0.596        -2.64      -0.145
 5    0.252 4.44e-16        -0.473        -1.41         -2.49      -3.03 
 6    0.252 4.44e-16        -0.473        -0.215         0.169     -0.145
 7    0.252 4.44e-16        -0.473        -1.41          0.169     -1.38 
 8   -5.11  4.44e-16        -0.473        -0.543         0.169     -0.145
 9    0.252 4.44e-16        -1.52          0.896         0.169      1.13 
10    0.252 4.44e-16        -0.473        -1.21          0.169      1.00 
# ℹ 58,911 more rows
# ℹ 3 more variables: ROLE_FAMILY_DESC <dbl>, ROLE_FAMILY <dbl>,
#   ROLE_CODE <dbl>
…
