…
> 
> set.seed(42)
> 
> ## parallel tune grid
> 
> #doParallel::registerDoParallel(10)
> cl <- makePSOCKcluster(15)
> registerDoParallel(cl)
> 
> ## Set up preprocessing
> prepped_recipe <- setup_train_recipe(train)
> 
> ## Bake recipe
> bake(prepped_recipe, new_data=train)
# A tibble: 32,769 × 1,050
   ACTION RESOURCE_X917 RESOURCE_X971 RESOURCE_X972 RESOURCE_X1020
   <fct>          <dbl>         <dbl>         <dbl>          <dbl>
 1 1                  0             0             0              0
 2 1                  0             0             0              0
 3 1                  0             0             0              0
 4 1                  0             0             0              0
 5 1                  0             0             0              0
 6 0                  0             0             0              0
 7 1                  0             0             0              0
 8 1                  0             0             0              0
 9 1                  0             0             0              0
10 1                  0             0             0              0
# ℹ 32,759 more rows
# ℹ 1,045 more variables: RESOURCE_X1937 <dbl>, RESOURCE_X1969 <dbl>,
#   RESOURCE_X3130 <dbl>, RESOURCE_X3264 <dbl>, RESOURCE_X3853 <dbl>,
#   RESOURCE_X4675 <dbl>, RESOURCE_X5112 <dbl>, RESOURCE_X5173 <dbl>,
#   RESOURCE_X6977 <dbl>, RESOURCE_X7543 <dbl>, RESOURCE_X7678 <dbl>,
#   RESOURCE_X13878 <dbl>, RESOURCE_X14354 <dbl>, RESOURCE_X14570 <dbl>,
#   RESOURCE_X15022 <dbl>, RESOURCE_X15064 <dbl>, RESOURCE_X15369 <dbl>, …
> bake(prepped_recipe, new_data=test)
# A tibble: 58,921 × 1,049
   RESOURCE_X917 RESOURCE_X971 RESOURCE_X972 RESOURCE_X1020 RESOURCE_X1937
           <dbl>         <dbl>         <dbl>          <dbl>          <dbl>
 1             0             0             0              0              0
 2             0             0             0              0              0
 3             0             0             0              0              0
 4             0             0             0              0              0
 5             0             0             0              0              0
 6             0             0             0              0              0
 7             0             0             0              0              0
 8             0             0             0              0              0
 9             0             0             0              0              0
10             0             0             0              0              0
# ℹ 58,911 more rows
# ℹ 1,044 more variables: RESOURCE_X1969 <dbl>, RESOURCE_X3130 <dbl>,
#   RESOURCE_X3264 <dbl>, RESOURCE_X3853 <dbl>, RESOURCE_X4675 <dbl>,
#   RESOURCE_X5112 <dbl>, RESOURCE_X5173 <dbl>, RESOURCE_X6977 <dbl>,
#   RESOURCE_X7543 <dbl>, RESOURCE_X7678 <dbl>, RESOURCE_X13878 <dbl>,
#   RESOURCE_X14354 <dbl>, RESOURCE_X14570 <dbl>, RESOURCE_X15022 <dbl>,
#   RESOURCE_X15064 <dbl>, RESOURCE_X15369 <dbl>, RESOURCE_X15714 <dbl>, …
…
