…
> set.seed(2003)
> 
> ## parallel tune grid
> 
> if(PARALLEL){
+   cl <- makePSOCKcluster(10)
+   registerDoParallel(cl)
+ }
> 
> ## Set up preprocessing
> prepped_recipe <- setup_train_recipe(train)
> 
> ## Bake recipe
> bake(prepped_recipe, new_data=train)
# A tibble: 32,769 × 6
   ACTION    PC1     PC2     PC3     PC4     PC5
   <fct>   <dbl>   <dbl>   <dbl>   <dbl>   <dbl>
 1 1      -0.440 -0.378  -0.447   0.101   0.325 
 2 1      -0.751  0.0296  0.0751 -0.249  -1.72  
 3 1       1.92  -0.155  -1.45    0.118  -0.204 
 4 1      -0.731 -1.19   -1.02   -0.494   0.892 
 5 1       2.96  -0.379  -1.90    0.440  -1.51  
 6 0       2.92  -0.583   1.39   -0.0400  0.0638
 7 1      -0.562 -0.957  -0.290  -0.754   0.853 
 8 1      -0.223  0.288  -1.37    0.206  -0.845 
 9 1       0.825 -1.91   -1.34   -0.137  -0.0359
10 1       2.68   2.77   -3.03    0.160  -0.687 
# ℹ 32,759 more rows
> bake(prepped_recipe, new_data=test)
# A tibble: 58,921 × 5
       PC1     PC2    PC3    PC4    PC5
     <dbl>   <dbl>  <dbl>  <dbl>  <dbl>
 1  4.30    1.70   -1.41   1.57   1.41 
 2 -0.967   1.17    0.970 -1.87  -0.964
 3 -1.34   -0.0507 -0.513  0.294  1.19 
 4 -0.0844 -0.198   0.103  0.182 -0.500
 5 -2.72    1.47    0.799 -1.11  -0.584
 6 -2.03    1.56    0.620 -1.59   0.264
 7  0.367  -0.101   1.93   1.89  -1.50 
 8 -2.97    1.58   -0.269  1.96  -0.504
 9  2.40   -1.68    0.482 -2.00  -0.865
10 -0.181  -1.12   -0.156 -1.76   1.22 
# ℹ 58,911 more rows
…
